25448
5730
1322
18146
22283
32195
17301
31236
23591
8072
3131
3296
21021
9854
27807
24461
25169
13654
28898
21165
4388
31755
15034
20942
8273
13322
25375
23396
4719
11389
6549
20064
22500
16852
15382
14594
16048
21720
11009
25123
8170
31305
16378
22610
677
5082
30963
