30690
7554
15140
18165
19536
3422
30180
16241
9986
8419
5005
19015
2279
14251
19712
10423
22872
12347
3384
6898
23903
30207
24930
12625
11685
2482
10658
12228
25932
28342
8161
2561
18708
27108
21749
21089
12671
19541
24438
3301
19315
28034
18187
4964
12780
2976
9600
